%TF.GenerationSoftware,KiCad,Pcbnew,(6.0.5)*%
%TF.CreationDate,2022-07-24T21:34:18-06:00*%
%TF.ProjectId,adoraborus,61646f72-6162-46f7-9275-732e6b696361,rev?*%
%TF.SameCoordinates,Original*%
%TF.FileFunction,Profile,NP*%
%FSLAX46Y46*%
G04 Gerber Fmt 4.6, Leading zero omitted, Abs format (unit mm)*
G04 Created by KiCad (PCBNEW (6.0.5)) date 2022-07-24 21:34:18*
%MOMM*%
%LPD*%
G01*
G04 APERTURE LIST*
%TA.AperFunction,Profile*%
%ADD10C,0.150000*%
%TD*%
G04 APERTURE END LIST*
D10*
X37793001Y-130548636D02*
G75*
G03*
X38000000Y-69000000I67165759J30548776D01*
G01*
X38013357Y-69006677D02*
G75*
G03*
X37793001Y-130548636I25529925J-30862786D01*
G01*
M02*
