Designator,Mid X,Mid Y,Rotation,Layer
D1,42.0,-76.25,70.0,top
D10,128.54269,-36.661493,-20.0,top
D100,121.1,-56.5,-20.0,top
D101,128.5,-60.0,-30.0,top
D102,135.1,-64.7,-40.0,top
D103,140.8,-70.5,-50.0,top
D104,145.5,-77.1,-60.0,top
D105,149.0,-84.3,-70.0,top
D106,151.0,-92.1,-80.0,top
D107,151.7,-99.9,-90.0,top
D108,151.0,-107.75,-100.0,top
D109,148.9,-115.4,-110.0,top
D11,139.0,-41.5,-30.0,top
D110,145.5,-122.6,-120.0,top
D111,141.0,-129.1,-130.0,top
D112,135.3,-134.8,-140.0,top
D113,128.7,-139.4,-150.0,top
D114,121.4,-142.8,-160.0,top
D115,113.6,-145.0,-170.0,top
D116,105.4,-145.75,180.0,top
D117,97.4,-145.1,170.0,top
D118,89.6,-143.1,160.0,top
D119,82.3,-139.6,150.0,top
D12,148.75,-48.25,-40.0,top
D120,75.6,-134.9,140.0,top
D121,68.5,-86.0,-110.0,top
D122,71.5,-80.0,-120.0,top
D123,75.5,-74.25,-130.0,top
D124,80.25,-69.25,-140.0,top
D125,85.75,-65.5,-150.0,top
D126,91.75,-62.5,-160.0,top
D127,98.5,-60.75,-170.0,top
D128,105.4,-60.15,180.0,top
D129,112.15,-60.75,170.0,top
D13,157.0,-56.5,-50.0,top
D130,118.75,-62.5,160.0,top
D131,124.955,-65.510955,150.0,top
D132,130.5,-69.5,140.0,top
D133,135.296369,-74.651138,130.0,top
D134,139.25,-80.25,120.0,top
D135,142.0,-86.25,110.0,top
D136,143.918963,-92.852452,100.0,top
D137,144.75,-99.5,90.0,top
D138,144.0,-106.430803,80.0,top
D139,142.25,-112.75,70.0,top
D14,163.5,-66.25,-60.0,top
D140,139.425,-119.013878,60.0,top
D141,135.25,-125.0,50.0,top
D142,130.75,-129.75,40.0,top
D143,125.236122,-133.575,30.0,top
D144,118.75,-136.5,20.0,top
D145,112.25,-138.0,10.0,top
D146,105.25,-138.75,0.0,top
D147,98.25,-138.25,-10.0,top
D148,91.75,-136.5,-20.0,top
D149,85.5,-133.5,-30.0,top
D15,168.5,-77.0,-70.0,top
D150,79.620755,-129.451966,-40.0,top
D151,48.944966,-138.5,130.0,top
D152,40.8,-126.4,120.0,top
D153,35.1,-115.4,110.0,top
D154,30.4,-100.1,100.0,top
D155,31.4,-87.3,70.0,top
D156,58.6,-139.1,130.0,top
D157,51.1,-129.5,120.0,top
D158,44.979152,-117.544738,110.0,top
D159,39.8,-105.4,100.0,top
D16,172.0,-87.75,-80.0,top
D160,39.7,-93.3,80.0,top
D161,63.5,-132.9,130.0,top
D162,57.8,-125.0,120.0,top
D163,53.2,-115.0,105.0,top
D164,49.4,-104.8,100.0,top
D165,48.7,-94.3,80.0,top
D166,69.7,-128.8,130.0,top
D167,64.6,-121.2,120.0,top
D168,60.5,-112.2,105.0,top
D169,58.0,-103.3,100.0,top
D17,173.0,-99.5,-90.0,top
D170,58.6,-94.4,80.0,top
D171,74.264183,-124.033514,-50.0,top
D172,70.2,-117.7,-70.0,top
D173,68.081037,-111.597548,-80.0,top
D174,66.1,-99.45,-90.0,top
D175,66.5,-93.7,-100.0,top
D18,171.25,-111.75,-100.0,top
D19,168.25,-123.0,-110.0,top
D2,47.0,-66.0,60.0,top
D20,163.25,-133.25,-120.0,top
D21,156.75,-142.5,-130.0,top
D22,148.25,-151.25,-140.0,top
D23,138.75,-157.75,-150.0,top
D24,128.0,-162.5,-160.0,top
D25,117.25,-165.5,-170.0,top
D26,105.25,-166.75,180.0,top
D27,93.5,-165.5,170.0,top
D28,82.25,-162.5,160.0,top
D29,71.5,-157.5,150.0,top
D3,53.75,-56.5,50.0,top
D30,62.25,-151.0,140.0,top
D31,49.25,-79.0,70.0,top
D32,53.5,-69.5,60.0,top
D33,59.25,-61.25,50.0,top
D34,67.0,-53.5,40.0,top
D35,75.5,-47.5,30.0,top
D36,85.0,-43.5,20.0,top
D37,95.0,-40.75,10.0,top
D38,105.25,-40.0,0.0,top
D39,115.5,-40.75,-10.0,top
D4,62.0,-48.0,40.0,top
D40,125.75,-43.75,-20.0,top
D41,135.25,-48.0,-30.0,top
D42,144.0,-53.75,-40.0,top
D43,151.25,-61.25,-50.0,top
D44,157.422243,-69.728461,-60.0,top
D45,161.75,-79.5,-70.0,top
D46,164.5,-89.25,-80.0,top
D47,165.5,-99.75,-90.0,top
D48,164.25,-110.25,-100.0,top
D49,161.75,-120.25,-110.0,top
D5,71.75,-41.25,30.0,top
D50,157.25,-129.75,-120.0,top
D51,151.0,-137.75,-130.0,top
D52,143.75,-145.25,-140.0,top
D53,135.25,-151.0,-150.0,top
D54,125.75,-155.25,-160.0,top
D55,116.0,-158.25,-170.0,top
D56,105.25,-159.5,180.0,top
D57,95.0,-158.25,170.0,top
D58,85.25,-155.25,160.0,top
D59,75.5,-151.0,150.0,top
D6,82.5,-36.25,20.0,top
D60,67.0,-145.25,140.0,top
D61,55.75,-81.75,70.0,top
D62,59.75,-73.0,60.0,top
D63,65.0,-65.25,50.0,top
D64,71.5,-58.75,40.0,top
D65,78.75,-53.75,30.0,top
D66,87.0,-49.75,20.0,top
D67,96.0,-47.5,10.0,top
D68,105.25,-46.75,0.0,top
D69,114.5,-47.5,-10.0,top
D7,93.75,-33.5,10.0,top
D70,123.5,-50.0,-20.0,top
D71,131.75,-54.0,-30.0,top
D72,139.5,-59.25,-40.0,top
D73,146.0,-65.75,-50.0,top
D74,151.5,-73.5,-60.0,top
D75,155.25,-81.994738,-70.0,top
D76,157.75,-90.75,-80.0,top
D77,158.5,-100.0,-90.0,top
D78,157.75,-109.0,-100.0,top
D79,155.25,-117.75,-110.0,top
D8,105.5,-32.5,0.0,top
D80,151.25,-126.25,-120.0,top
D81,145.75,-133.25,-130.0,top
D82,139.75,-139.75,-140.0,top
D83,132.0,-145.25,-150.0,top
D84,123.75,-149.5,-160.0,top
D85,114.75,-151.75,-170.0,top
D86,105.25,-152.5,180.0,top
D87,96.25,-151.75,170.0,top
D88,87.25,-149.25,160.0,top
D89,79.0,-145.25,150.0,top
D9,117.0,-33.25,-10.0,top
D90,71.5,-140.0,140.0,top
D91,62.5,-84.25,70.0,top
D92,65.75,-76.75,60.0,top
D93,70.5,-70.0,50.0,top
D94,76.1,-64.2,40.0,top
D95,82.6,-59.7,30.0,top
D96,89.8,-56.4,20.0,top
D97,97.5,-54.3,10.0,top
D98,105.4,-53.6,0.0,top
D99,113.4,-54.3,-10.0,top
