(kicad_sch (version 20230121) (generator eeschema)

  (uuid e63e39d7-6ac0-4ffd-8aa3-1841a4541b55)

  (paper "A4")

  (lib_symbols
    (symbol "Chippydootles_Symbols:AVR128DA64" (in_bom yes) (on_board yes)
      (property "Reference" "U1" (at -11.43 -50.8 0)
        (effects (font (size 1.27 1.27)))
      )
      (property "Value" "AVR128DA64" (at 10.16 -49.53 0)
        (effects (font (size 1.27 1.27)))
      )
      (property "Footprint" "Package_DFN_QFN:QFN-64-1EP_9x9mm_P0.5mm_EP7.15x7.15mm" (at 0 0 0)
        (effects (font (size 1.27 1.27) italic) hide)
      )
      (property "Datasheet" "https://ww1.microchip.com/downloads/aemdocument/MCU08/ProductDocuments/DataSheets/AVR128DA28-32-48-64-Data-Sheet-40002183C.pdf" (at 0 0 0)
        (effects (font (size 1.27 1.27)) hide)
      )
      (property "ki_keywords" "AVR 8bit Microcontroller MegaAVR" (at 0 0 0)
        (effects (font (size 1.27 1.27)) hide)
      )
      (property "ki_description" "16MHz,128kB Flash, 16kB SRAM, 512kB EEPROM, QFN-64" (at 0 0 0)
        (effects (font (size 1.27 1.27)) hide)
      )
      (property "ki_fp_filters" "QFN*1EP*9x9mm*P0.5mm*" (at 0 0 0)
        (effects (font (size 1.27 1.27)) hide)
      )
      (symbol "AVR128DA64_0_1"
        (rectangle (start -12.7 -48.26) (end 12.7 48.26)
          (stroke (width 0.254) (type default))
          (fill (type background))
        )
      )
      (symbol "AVR128DA64_1_1"
        (pin bidirectional line (at 15.24 35.56 180) (length 2.54)
          (name "PA3" (effects (font (size 1.27 1.27))))
          (number "1" (effects (font (size 1.27 1.27))))
        )
        (pin bidirectional line (at 15.24 15.24 180) (length 2.54)
          (name "PB2" (effects (font (size 1.27 1.27))))
          (number "10" (effects (font (size 1.27 1.27))))
        )
        (pin bidirectional line (at 15.24 12.7 180) (length 2.54)
          (name "PB3" (effects (font (size 1.27 1.27))))
          (number "11" (effects (font (size 1.27 1.27))))
        )
        (pin bidirectional line (at 15.24 10.16 180) (length 2.54)
          (name "PB4" (effects (font (size 1.27 1.27))))
          (number "12" (effects (font (size 1.27 1.27))))
        )
        (pin bidirectional line (at 15.24 7.62 180) (length 2.54)
          (name "PB5" (effects (font (size 1.27 1.27))))
          (number "13" (effects (font (size 1.27 1.27))))
        )
        (pin bidirectional line (at 15.24 5.08 180) (length 2.54)
          (name "PB6" (effects (font (size 1.27 1.27))))
          (number "14" (effects (font (size 1.27 1.27))))
        )
        (pin bidirectional line (at 15.24 2.54 180) (length 2.54)
          (name "PB7" (effects (font (size 1.27 1.27))))
          (number "15" (effects (font (size 1.27 1.27))))
        )
        (pin bidirectional line (at 15.24 -2.54 180) (length 2.54)
          (name "PC0" (effects (font (size 1.27 1.27))))
          (number "16" (effects (font (size 1.27 1.27))))
        )
        (pin bidirectional line (at 15.24 -5.08 180) (length 2.54)
          (name "PC1" (effects (font (size 1.27 1.27))))
          (number "17" (effects (font (size 1.27 1.27))))
        )
        (pin bidirectional line (at 15.24 -7.62 180) (length 2.54)
          (name "PC2" (effects (font (size 1.27 1.27))))
          (number "18" (effects (font (size 1.27 1.27))))
        )
        (pin bidirectional line (at 15.24 -10.16 180) (length 2.54)
          (name "PC3" (effects (font (size 1.27 1.27))))
          (number "19" (effects (font (size 1.27 1.27))))
        )
        (pin bidirectional line (at 15.24 33.02 180) (length 2.54)
          (name "PA4" (effects (font (size 1.27 1.27))))
          (number "2" (effects (font (size 1.27 1.27))))
        )
        (pin power_in line (at 0 50.8 270) (length 2.54)
          (name "VDD" (effects (font (size 1.27 1.27))))
          (number "20" (effects (font (size 1.27 1.27))))
        )
        (pin passive line (at 0 -50.8 90) (length 2.54)
          (name "GND" (effects (font (size 1.27 1.27))))
          (number "21" (effects (font (size 1.27 1.27))))
        )
        (pin bidirectional line (at 15.24 -12.7 180) (length 2.54)
          (name "PC4" (effects (font (size 1.27 1.27))))
          (number "22" (effects (font (size 1.27 1.27))))
        )
        (pin bidirectional line (at 15.24 -15.24 180) (length 2.54)
          (name "PC5" (effects (font (size 1.27 1.27))))
          (number "23" (effects (font (size 1.27 1.27))))
        )
        (pin bidirectional line (at 15.24 -17.78 180) (length 2.54)
          (name "PC6" (effects (font (size 1.27 1.27))))
          (number "24" (effects (font (size 1.27 1.27))))
        )
        (pin bidirectional line (at 15.24 -20.32 180) (length 2.54)
          (name "PC7" (effects (font (size 1.27 1.27))))
          (number "25" (effects (font (size 1.27 1.27))))
        )
        (pin bidirectional line (at 15.24 -25.4 180) (length 2.54)
          (name "PD0" (effects (font (size 1.27 1.27))))
          (number "26" (effects (font (size 1.27 1.27))))
        )
        (pin bidirectional line (at 15.24 -27.94 180) (length 2.54)
          (name "PD1" (effects (font (size 1.27 1.27))))
          (number "27" (effects (font (size 1.27 1.27))))
        )
        (pin bidirectional line (at 15.24 -30.48 180) (length 2.54)
          (name "PD2" (effects (font (size 1.27 1.27))))
          (number "28" (effects (font (size 1.27 1.27))))
        )
        (pin bidirectional line (at 15.24 -33.02 180) (length 2.54)
          (name "PD3" (effects (font (size 1.27 1.27))))
          (number "29" (effects (font (size 1.27 1.27))))
        )
        (pin bidirectional line (at 15.24 30.48 180) (length 2.54)
          (name "PA5" (effects (font (size 1.27 1.27))))
          (number "3" (effects (font (size 1.27 1.27))))
        )
        (pin bidirectional line (at 15.24 -35.56 180) (length 2.54)
          (name "PD4" (effects (font (size 1.27 1.27))))
          (number "30" (effects (font (size 1.27 1.27))))
        )
        (pin bidirectional line (at 15.24 -38.1 180) (length 2.54)
          (name "PD5" (effects (font (size 1.27 1.27))))
          (number "31" (effects (font (size 1.27 1.27))))
        )
        (pin bidirectional line (at 15.24 -40.64 180) (length 2.54)
          (name "PD6" (effects (font (size 1.27 1.27))))
          (number "32" (effects (font (size 1.27 1.27))))
        )
        (pin bidirectional line (at 15.24 -43.18 180) (length 2.54)
          (name "PD7" (effects (font (size 1.27 1.27))))
          (number "33" (effects (font (size 1.27 1.27))))
        )
        (pin power_in line (at 2.54 50.8 270) (length 2.54)
          (name "AVDD" (effects (font (size 1.27 1.27))))
          (number "34" (effects (font (size 1.27 1.27))))
        )
        (pin passive line (at 0 -50.8 90) (length 2.54)
          (name "GND" (effects (font (size 1.27 1.27))))
          (number "35" (effects (font (size 1.27 1.27))))
        )
        (pin bidirectional line (at -15.24 -25.4 0) (length 2.54)
          (name "PE0" (effects (font (size 1.27 1.27))))
          (number "36" (effects (font (size 1.27 1.27))))
        )
        (pin bidirectional line (at -15.24 -27.94 0) (length 2.54)
          (name "PE1" (effects (font (size 1.27 1.27))))
          (number "37" (effects (font (size 1.27 1.27))))
        )
        (pin bidirectional line (at -15.24 -30.48 0) (length 2.54)
          (name "PE2" (effects (font (size 1.27 1.27))))
          (number "38" (effects (font (size 1.27 1.27))))
        )
        (pin bidirectional line (at -15.24 -33.02 0) (length 2.54)
          (name "PE3" (effects (font (size 1.27 1.27))))
          (number "39" (effects (font (size 1.27 1.27))))
        )
        (pin bidirectional line (at 15.24 27.94 180) (length 2.54)
          (name "PA6" (effects (font (size 1.27 1.27))))
          (number "4" (effects (font (size 1.27 1.27))))
        )
        (pin bidirectional line (at -15.24 -35.56 0) (length 2.54)
          (name "PE4" (effects (font (size 1.27 1.27))))
          (number "40" (effects (font (size 1.27 1.27))))
        )
        (pin bidirectional line (at -15.24 -38.1 0) (length 2.54)
          (name "PE5" (effects (font (size 1.27 1.27))))
          (number "41" (effects (font (size 1.27 1.27))))
        )
        (pin bidirectional line (at -15.24 -40.64 0) (length 2.54)
          (name "PE6" (effects (font (size 1.27 1.27))))
          (number "42" (effects (font (size 1.27 1.27))))
        )
        (pin bidirectional line (at -15.24 -43.18 0) (length 2.54)
          (name "PE7" (effects (font (size 1.27 1.27))))
          (number "43" (effects (font (size 1.27 1.27))))
        )
        (pin bidirectional line (at -15.24 -2.54 0) (length 2.54)
          (name "PF0" (effects (font (size 1.27 1.27))))
          (number "44" (effects (font (size 1.27 1.27))))
        )
        (pin bidirectional line (at -15.24 -5.08 0) (length 2.54)
          (name "PF1" (effects (font (size 1.27 1.27))))
          (number "45" (effects (font (size 1.27 1.27))))
        )
        (pin bidirectional line (at -15.24 -7.62 0) (length 2.54)
          (name "PF2" (effects (font (size 1.27 1.27))))
          (number "46" (effects (font (size 1.27 1.27))))
        )
        (pin bidirectional line (at -15.24 -10.16 0) (length 2.54)
          (name "PF3" (effects (font (size 1.27 1.27))))
          (number "47" (effects (font (size 1.27 1.27))))
        )
        (pin bidirectional line (at -15.24 -12.7 0) (length 2.54)
          (name "PF4" (effects (font (size 1.27 1.27))))
          (number "48" (effects (font (size 1.27 1.27))))
        )
        (pin bidirectional line (at -15.24 -15.24 0) (length 2.54)
          (name "PF5" (effects (font (size 1.27 1.27))))
          (number "49" (effects (font (size 1.27 1.27))))
        )
        (pin bidirectional line (at 15.24 25.4 180) (length 2.54)
          (name "PA7" (effects (font (size 1.27 1.27))))
          (number "5" (effects (font (size 1.27 1.27))))
        )
        (pin bidirectional line (at -15.24 -17.78 0) (length 2.54)
          (name "PF6" (effects (font (size 1.27 1.27))))
          (number "50" (effects (font (size 1.27 1.27))))
        )
        (pin bidirectional line (at -15.24 17.78 0) (length 2.54)
          (name "PG1" (effects (font (size 1.27 1.27))))
          (number "51" (effects (font (size 1.27 1.27))))
        )
        (pin bidirectional line (at -15.24 38.1 0) (length 2.54)
          (name "UDPI" (effects (font (size 1.27 1.27))))
          (number "51" (effects (font (size 1.27 1.27))))
        )
        (pin bidirectional line (at -15.24 20.32 0) (length 2.54)
          (name "PG0" (effects (font (size 1.27 1.27))))
          (number "52" (effects (font (size 1.27 1.27))))
        )
        (pin bidirectional line (at -15.24 15.24 0) (length 2.54)
          (name "PG2" (effects (font (size 1.27 1.27))))
          (number "54" (effects (font (size 1.27 1.27))))
        )
        (pin bidirectional line (at -15.24 12.7 0) (length 2.54)
          (name "PG3" (effects (font (size 1.27 1.27))))
          (number "55" (effects (font (size 1.27 1.27))))
        )
        (pin power_in line (at 0 50.8 270) (length 2.54)
          (name "VDD" (effects (font (size 1.27 1.27))))
          (number "56" (effects (font (size 1.27 1.27))))
        )
        (pin passive line (at 0 -50.8 90) (length 2.54)
          (name "GND" (effects (font (size 1.27 1.27))))
          (number "57" (effects (font (size 1.27 1.27))))
        )
        (pin bidirectional line (at -15.24 10.16 0) (length 2.54)
          (name "PG4" (effects (font (size 1.27 1.27))))
          (number "58" (effects (font (size 1.27 1.27))))
        )
        (pin bidirectional line (at -15.24 7.62 0) (length 2.54)
          (name "PG5" (effects (font (size 1.27 1.27))))
          (number "59" (effects (font (size 1.27 1.27))))
        )
        (pin power_in line (at 0 50.8 270) (length 2.54)
          (name "VDD" (effects (font (size 1.27 1.27))))
          (number "6" (effects (font (size 1.27 1.27))))
        )
        (pin bidirectional line (at -15.24 5.08 0) (length 2.54)
          (name "PG6" (effects (font (size 1.27 1.27))))
          (number "60" (effects (font (size 1.27 1.27))))
        )
        (pin bidirectional line (at -15.24 2.54 0) (length 2.54)
          (name "PG7" (effects (font (size 1.27 1.27))))
          (number "61" (effects (font (size 1.27 1.27))))
        )
        (pin bidirectional line (at 15.24 43.18 180) (length 2.54)
          (name "PA0" (effects (font (size 1.27 1.27))))
          (number "62" (effects (font (size 1.27 1.27))))
        )
        (pin bidirectional line (at 15.24 40.64 180) (length 2.54)
          (name "PA1" (effects (font (size 1.27 1.27))))
          (number "63" (effects (font (size 1.27 1.27))))
        )
        (pin bidirectional line (at 15.24 38.1 180) (length 2.54)
          (name "PA2" (effects (font (size 1.27 1.27))))
          (number "64" (effects (font (size 1.27 1.27))))
        )
        (pin passive line (at 2.54 -50.8 90) (length 2.54)
          (name "GND" (effects (font (size 1.27 1.27))))
          (number "65" (effects (font (size 1.27 1.27))))
        )
        (pin passive line (at 0 -50.8 90) (length 2.54)
          (name "GND" (effects (font (size 1.27 1.27))))
          (number "7" (effects (font (size 1.27 1.27))))
        )
        (pin bidirectional line (at 15.24 20.32 180) (length 2.54)
          (name "PB0" (effects (font (size 1.27 1.27))))
          (number "8" (effects (font (size 1.27 1.27))))
        )
        (pin bidirectional line (at 15.24 17.78 180) (length 2.54)
          (name "PB1" (effects (font (size 1.27 1.27))))
          (number "9" (effects (font (size 1.27 1.27))))
        )
      )
    )
    (symbol "Connector_Generic:Conn_02x05_Odd_Even" (pin_names (offset 1.016) hide) (in_bom yes) (on_board yes)
      (property "Reference" "J" (at 1.27 7.62 0)
        (effects (font (size 1.27 1.27)))
      )
      (property "Value" "Conn_02x05_Odd_Even" (at 1.27 -7.62 0)
        (effects (font (size 1.27 1.27)))
      )
      (property "Footprint" "" (at 0 0 0)
        (effects (font (size 1.27 1.27)) hide)
      )
      (property "Datasheet" "~" (at 0 0 0)
        (effects (font (size 1.27 1.27)) hide)
      )
      (property "ki_keywords" "connector" (at 0 0 0)
        (effects (font (size 1.27 1.27)) hide)
      )
      (property "ki_description" "Generic connector, double row, 02x05, odd/even pin numbering scheme (row 1 odd numbers, row 2 even numbers), script generated (kicad-library-utils/schlib/autogen/connector/)" (at 0 0 0)
        (effects (font (size 1.27 1.27)) hide)
      )
      (property "ki_fp_filters" "Connector*:*_2x??_*" (at 0 0 0)
        (effects (font (size 1.27 1.27)) hide)
      )
      (symbol "Conn_02x05_Odd_Even_1_1"
        (rectangle (start -1.27 -4.953) (end 0 -5.207)
          (stroke (width 0.1524) (type default))
          (fill (type none))
        )
        (rectangle (start -1.27 -2.413) (end 0 -2.667)
          (stroke (width 0.1524) (type default))
          (fill (type none))
        )
        (rectangle (start -1.27 0.127) (end 0 -0.127)
          (stroke (width 0.1524) (type default))
          (fill (type none))
        )
        (rectangle (start -1.27 2.667) (end 0 2.413)
          (stroke (width 0.1524) (type default))
          (fill (type none))
        )
        (rectangle (start -1.27 5.207) (end 0 4.953)
          (stroke (width 0.1524) (type default))
          (fill (type none))
        )
        (rectangle (start -1.27 6.35) (end 3.81 -6.35)
          (stroke (width 0.254) (type default))
          (fill (type background))
        )
        (rectangle (start 3.81 -4.953) (end 2.54 -5.207)
          (stroke (width 0.1524) (type default))
          (fill (type none))
        )
        (rectangle (start 3.81 -2.413) (end 2.54 -2.667)
          (stroke (width 0.1524) (type default))
          (fill (type none))
        )
        (rectangle (start 3.81 0.127) (end 2.54 -0.127)
          (stroke (width 0.1524) (type default))
          (fill (type none))
        )
        (rectangle (start 3.81 2.667) (end 2.54 2.413)
          (stroke (width 0.1524) (type default))
          (fill (type none))
        )
        (rectangle (start 3.81 5.207) (end 2.54 4.953)
          (stroke (width 0.1524) (type default))
          (fill (type none))
        )
        (pin passive line (at -5.08 5.08 0) (length 3.81)
          (name "Pin_1" (effects (font (size 1.27 1.27))))
          (number "1" (effects (font (size 1.27 1.27))))
        )
        (pin passive line (at 7.62 -5.08 180) (length 3.81)
          (name "Pin_10" (effects (font (size 1.27 1.27))))
          (number "10" (effects (font (size 1.27 1.27))))
        )
        (pin passive line (at 7.62 5.08 180) (length 3.81)
          (name "Pin_2" (effects (font (size 1.27 1.27))))
          (number "2" (effects (font (size 1.27 1.27))))
        )
        (pin passive line (at -5.08 2.54 0) (length 3.81)
          (name "Pin_3" (effects (font (size 1.27 1.27))))
          (number "3" (effects (font (size 1.27 1.27))))
        )
        (pin passive line (at 7.62 2.54 180) (length 3.81)
          (name "Pin_4" (effects (font (size 1.27 1.27))))
          (number "4" (effects (font (size 1.27 1.27))))
        )
        (pin passive line (at -5.08 0 0) (length 3.81)
          (name "Pin_5" (effects (font (size 1.27 1.27))))
          (number "5" (effects (font (size 1.27 1.27))))
        )
        (pin passive line (at 7.62 0 180) (length 3.81)
          (name "Pin_6" (effects (font (size 1.27 1.27))))
          (number "6" (effects (font (size 1.27 1.27))))
        )
        (pin passive line (at -5.08 -2.54 0) (length 3.81)
          (name "Pin_7" (effects (font (size 1.27 1.27))))
          (number "7" (effects (font (size 1.27 1.27))))
        )
        (pin passive line (at 7.62 -2.54 180) (length 3.81)
          (name "Pin_8" (effects (font (size 1.27 1.27))))
          (number "8" (effects (font (size 1.27 1.27))))
        )
        (pin passive line (at -5.08 -5.08 0) (length 3.81)
          (name "Pin_9" (effects (font (size 1.27 1.27))))
          (number "9" (effects (font (size 1.27 1.27))))
        )
      )
    )
    (symbol "MK_THIRD_PARTY:Graphic_Placeholder" (pin_names (offset 1.016)) (in_bom yes) (on_board yes)
      (property "Reference" "G" (at 0 1.27 0)
        (effects (font (size 1.27 1.27)))
      )
      (property "Value" "Graphic_Placeholder" (at 1.27 -1.27 0)
        (effects (font (size 1.27 1.27)))
      )
      (property "Footprint" "" (at 0 0 0)
        (effects (font (size 1.27 1.27)) hide)
      )
      (property "Datasheet" "" (at 0 0 0)
        (effects (font (size 1.27 1.27)) hide)
      )
      (symbol "Graphic_Placeholder_0_1"
        (rectangle (start -8.89 2.54) (end 11.43 -2.54)
          (stroke (width 0) (type default))
          (fill (type background))
        )
      )
    )
    (symbol "Mechanical:MountingHole" (pin_names (offset 1.016)) (in_bom yes) (on_board yes)
      (property "Reference" "H" (at 0 5.08 0)
        (effects (font (size 1.27 1.27)))
      )
      (property "Value" "MountingHole" (at 0 3.175 0)
        (effects (font (size 1.27 1.27)))
      )
      (property "Footprint" "" (at 0 0 0)
        (effects (font (size 1.27 1.27)) hide)
      )
      (property "Datasheet" "~" (at 0 0 0)
        (effects (font (size 1.27 1.27)) hide)
      )
      (property "ki_keywords" "mounting hole" (at 0 0 0)
        (effects (font (size 1.27 1.27)) hide)
      )
      (property "ki_description" "Mounting Hole without connection" (at 0 0 0)
        (effects (font (size 1.27 1.27)) hide)
      )
      (property "ki_fp_filters" "MountingHole*" (at 0 0 0)
        (effects (font (size 1.27 1.27)) hide)
      )
      (symbol "MountingHole_0_1"
        (circle (center 0 0) (radius 1.27)
          (stroke (width 1.27) (type default))
          (fill (type none))
        )
      )
    )
  )

  (junction (at 64.77 44.45) (diameter 0) (color 0 0 0 0)
    (uuid 6a7ff31e-f318-4512-92b7-5c2b9db072de)
  )
  (junction (at 66.04 158.75) (diameter 0) (color 0 0 0 0)
    (uuid c1beb85a-24d5-4fe0-be8f-72c5ebb531da)
  )

  (no_connect (at 80.01 114.3) (uuid 47a2dd37-ad02-4281-9a66-8ff7ab400570))
  (no_connect (at 80.01 116.84) (uuid 6a5b3eea-de35-4a54-8316-e56ea2a634e4))
  (no_connect (at 49.53 93.98) (uuid e3b3b3d8-51fd-4fd3-9bc6-e22dbdcc4e1c))
  (no_connect (at 49.53 96.52) (uuid e3b3b3d8-51fd-4fd3-9bc6-e22dbdcc4e1d))
  (no_connect (at 49.53 99.06) (uuid e3b3b3d8-51fd-4fd3-9bc6-e22dbdcc4e1e))
  (no_connect (at 80.01 58.42) (uuid e3b3b3d8-51fd-4fd3-9bc6-e22dbdcc4e1f))
  (no_connect (at 80.01 60.96) (uuid e3b3b3d8-51fd-4fd3-9bc6-e22dbdcc4e20))
  (no_connect (at 80.01 63.5) (uuid e3b3b3d8-51fd-4fd3-9bc6-e22dbdcc4e21))
  (no_connect (at 49.53 81.28) (uuid e3b3b3d8-51fd-4fd3-9bc6-e22dbdcc4e22))
  (no_connect (at 49.53 83.82) (uuid e3b3b3d8-51fd-4fd3-9bc6-e22dbdcc4e23))
  (no_connect (at 49.53 86.36) (uuid e3b3b3d8-51fd-4fd3-9bc6-e22dbdcc4e24))
  (no_connect (at 49.53 88.9) (uuid e3b3b3d8-51fd-4fd3-9bc6-e22dbdcc4e25))
  (no_connect (at 49.53 91.44) (uuid e3b3b3d8-51fd-4fd3-9bc6-e22dbdcc4e26))
  (no_connect (at 80.01 119.38) (uuid f0d5ae26-c535-4a37-9220-b3d08bfeda2f))
  (no_connect (at 80.01 121.92) (uuid fe0a8ab1-7b25-4d9a-9a3b-f8c5e10b289a))

  (wire (pts (xy 46.99 134.62) (xy 49.53 134.62))
    (stroke (width 0) (type default))
    (uuid 009a4817-bc1b-4dae-840e-13303a212d37)
  )
  (wire (pts (xy 64.77 44.45) (xy 64.77 50.8))
    (stroke (width 0) (type default))
    (uuid 01e31fe5-dc97-4fc3-9cb6-e75a4219d4e5)
  )
  (wire (pts (xy 80.01 91.44) (xy 82.55 91.44))
    (stroke (width 0) (type default))
    (uuid 02bcbf46-2479-4892-ad9f-d2d7b0d9291e)
  )
  (wire (pts (xy 80.01 81.28) (xy 82.55 81.28))
    (stroke (width 0) (type default))
    (uuid 03b1477d-cfa6-49a1-a316-72fdd8a295a7)
  )
  (wire (pts (xy 138.43 67.31) (xy 143.51 67.31))
    (stroke (width 0) (type default))
    (uuid 07e001c6-581f-49a2-9a26-726a242be3e0)
  )
  (wire (pts (xy 138.43 72.39) (xy 143.51 72.39))
    (stroke (width 0) (type default))
    (uuid 08d8eced-84b6-4338-9dfc-74c42703f141)
  )
  (wire (pts (xy 46.99 114.3) (xy 49.53 114.3))
    (stroke (width 0) (type default))
    (uuid 0bd5b660-d755-4e42-b14a-779b05ed7b09)
  )
  (wire (pts (xy 46.99 137.16) (xy 49.53 137.16))
    (stroke (width 0) (type default))
    (uuid 1275aab3-5f74-40cb-b10d-e6f7ecd7203d)
  )
  (wire (pts (xy 80.01 71.12) (xy 82.55 71.12))
    (stroke (width 0) (type default))
    (uuid 1526f2de-c92a-4c66-8e02-230a2876c385)
  )
  (wire (pts (xy 80.01 134.62) (xy 82.55 134.62))
    (stroke (width 0) (type default))
    (uuid 1ceb0359-7f73-43fc-95c0-e7a2592d9e69)
  )
  (wire (pts (xy 138.43 77.47) (xy 143.51 77.47))
    (stroke (width 0) (type default))
    (uuid 238ff105-ae16-4bc2-a59a-f48ce833d028)
  )
  (wire (pts (xy 80.01 139.7) (xy 82.55 139.7))
    (stroke (width 0) (type default))
    (uuid 33dff23d-25d3-49cd-b230-7b1b3d1765c4)
  )
  (wire (pts (xy 64.77 44.45) (xy 67.31 44.45))
    (stroke (width 0) (type default))
    (uuid 34fb8779-9a92-44ba-b6c9-7eaf7f2a97bd)
  )
  (wire (pts (xy 121.92 67.31) (xy 125.73 67.31))
    (stroke (width 0) (type default))
    (uuid 3a884e02-675f-46ec-82e4-8da210468f23)
  )
  (wire (pts (xy 46.99 44.45) (xy 64.77 44.45))
    (stroke (width 0) (type default))
    (uuid 3aeb585b-5b22-403b-8dfc-f2f3df92d40b)
  )
  (wire (pts (xy 80.01 142.24) (xy 82.55 142.24))
    (stroke (width 0) (type default))
    (uuid 3c4da20b-0067-44e1-bce5-82b0d56a206f)
  )
  (wire (pts (xy 67.31 44.45) (xy 67.31 50.8))
    (stroke (width 0) (type default))
    (uuid 3e2b0c34-16df-493b-9b3e-9e846368f718)
  )
  (wire (pts (xy 80.01 76.2) (xy 82.55 76.2))
    (stroke (width 0) (type default))
    (uuid 463e8527-827c-4dc2-9113-6b5b43a332b0)
  )
  (wire (pts (xy 46.99 139.7) (xy 49.53 139.7))
    (stroke (width 0) (type default))
    (uuid 5a65a32e-4466-470a-9fd0-171b0041cb0c)
  )
  (wire (pts (xy 46.99 129.54) (xy 49.53 129.54))
    (stroke (width 0) (type default))
    (uuid 5eeb05bb-d708-481a-8a10-bc47c96ce8f5)
  )
  (wire (pts (xy 67.31 152.4) (xy 67.31 158.75))
    (stroke (width 0) (type default))
    (uuid 614a51ea-cefe-400e-bad0-7c953fe23c73)
  )
  (wire (pts (xy 46.99 106.68) (xy 49.53 106.68))
    (stroke (width 0) (type default))
    (uuid 6f641707-9b3d-48e0-bcfa-c8fc2036637b)
  )
  (wire (pts (xy 80.01 86.36) (xy 82.55 86.36))
    (stroke (width 0) (type default))
    (uuid 6fa48e34-f98f-4ce1-bf74-e50b7e7d7d11)
  )
  (wire (pts (xy 46.99 119.38) (xy 49.53 119.38))
    (stroke (width 0) (type default))
    (uuid 77514ba1-9a6b-4251-b0eb-81c10e251b9e)
  )
  (wire (pts (xy 46.99 109.22) (xy 49.53 109.22))
    (stroke (width 0) (type default))
    (uuid 794be0e5-3e51-4f29-ac9e-f3048f06cf0a)
  )
  (wire (pts (xy 80.01 68.58) (xy 82.55 68.58))
    (stroke (width 0) (type default))
    (uuid 7c036220-2a74-4a8f-90c6-9d45ff591ad6)
  )
  (wire (pts (xy 80.01 106.68) (xy 85.09 106.68))
    (stroke (width 0) (type default))
    (uuid 802d7411-2b0b-434c-ac93-ae8ecfa40f16)
  )
  (wire (pts (xy 45.72 63.5) (xy 49.53 63.5))
    (stroke (width 0) (type default))
    (uuid 8dec8c09-4366-4443-9f91-0cbd37423101)
  )
  (wire (pts (xy 80.01 109.22) (xy 83.82 109.22))
    (stroke (width 0) (type default))
    (uuid 957e102c-419b-47be-a98b-ee1f83a04e14)
  )
  (wire (pts (xy 46.99 132.08) (xy 49.53 132.08))
    (stroke (width 0) (type default))
    (uuid 9eda5b31-2465-49fa-97ee-b387b6e1bf62)
  )
  (wire (pts (xy 46.99 127) (xy 49.53 127))
    (stroke (width 0) (type default))
    (uuid a43e79b6-f051-4ddf-b482-9f8d21c892e4)
  )
  (wire (pts (xy 67.31 158.75) (xy 66.04 158.75))
    (stroke (width 0) (type default))
    (uuid a5839b96-5108-45d0-9370-31fef85c403d)
  )
  (wire (pts (xy 80.01 99.06) (xy 82.55 99.06))
    (stroke (width 0) (type default))
    (uuid a77a0531-8c87-4542-89ee-a3c043143f9b)
  )
  (wire (pts (xy 80.01 88.9) (xy 82.55 88.9))
    (stroke (width 0) (type default))
    (uuid abe341ce-616b-43d2-b599-1bb342d84c23)
  )
  (wire (pts (xy 80.01 66.04) (xy 82.55 66.04))
    (stroke (width 0) (type default))
    (uuid b0a9c54b-b0a8-4aab-8e34-d35b8dc0dc4e)
  )
  (wire (pts (xy 80.01 137.16) (xy 82.55 137.16))
    (stroke (width 0) (type default))
    (uuid b0c698d5-227e-4f1d-b6d7-d08dfce6dfb3)
  )
  (wire (pts (xy 64.77 152.4) (xy 64.77 158.75))
    (stroke (width 0) (type default))
    (uuid c1d0142c-cdf8-4e0e-bc10-6bd75c416b6a)
  )
  (wire (pts (xy 66.04 158.75) (xy 64.77 158.75))
    (stroke (width 0) (type default))
    (uuid c2363324-e3d4-47aa-836c-ff6abc87e6bd)
  )
  (wire (pts (xy 80.01 73.66) (xy 82.55 73.66))
    (stroke (width 0) (type default))
    (uuid c32c447d-9805-4465-b85a-d9ca5ff23c6c)
  )
  (wire (pts (xy 80.01 111.76) (xy 83.82 111.76))
    (stroke (width 0) (type default))
    (uuid c727bc7b-b42f-4198-8ca4-f5ab6d4ab999)
  )
  (wire (pts (xy 80.01 96.52) (xy 82.55 96.52))
    (stroke (width 0) (type default))
    (uuid d183825c-a7f8-4e4b-badf-fb7ce9c03f30)
  )
  (wire (pts (xy 80.01 129.54) (xy 82.55 129.54))
    (stroke (width 0) (type default))
    (uuid d91dbeff-81c6-4fb8-bb3a-36a08837981c)
  )
  (wire (pts (xy 46.99 144.78) (xy 49.53 144.78))
    (stroke (width 0) (type default))
    (uuid db73e5d2-364d-4aa6-9f45-6223c4d8bfc1)
  )
  (wire (pts (xy 80.01 144.78) (xy 82.55 144.78))
    (stroke (width 0) (type default))
    (uuid dc2ba5d5-73c6-45bc-b6bf-2eb74f5961d6)
  )
  (wire (pts (xy 120.65 74.93) (xy 125.73 74.93))
    (stroke (width 0) (type default))
    (uuid e091cd3c-fc47-4c41-8476-0ec47526e265)
  )
  (wire (pts (xy 80.01 127) (xy 82.55 127))
    (stroke (width 0) (type default))
    (uuid e26ed48e-ae8f-481b-a6d6-007542cba02d)
  )
  (wire (pts (xy 138.43 69.85) (xy 143.51 69.85))
    (stroke (width 0) (type default))
    (uuid e5288d3d-575d-4229-9b74-5552cc07906a)
  )
  (wire (pts (xy 66.04 165.1) (xy 66.04 158.75))
    (stroke (width 0) (type default))
    (uuid ec31571e-d4f9-4b0d-88d3-211fd3603ba6)
  )
  (wire (pts (xy 46.99 111.76) (xy 49.53 111.76))
    (stroke (width 0) (type default))
    (uuid ed1c64ef-9f10-4add-8766-533a72715c98)
  )
  (wire (pts (xy 46.99 104.14) (xy 49.53 104.14))
    (stroke (width 0) (type default))
    (uuid f2318b86-b749-45ec-8d29-9c0546ae9c3c)
  )
  (wire (pts (xy 46.99 142.24) (xy 49.53 142.24))
    (stroke (width 0) (type default))
    (uuid f2cc4d3c-1836-4dee-b211-c420d224dbaf)
  )
  (wire (pts (xy 138.43 74.93) (xy 143.51 74.93))
    (stroke (width 0) (type default))
    (uuid f553f5cd-2bd5-4cbc-9bbf-ed6e32268c9f)
  )
  (wire (pts (xy 80.01 104.14) (xy 85.09 104.14))
    (stroke (width 0) (type default))
    (uuid f5d6183b-593d-49b0-87a9-a38b9094f689)
  )
  (wire (pts (xy 80.01 132.08) (xy 82.55 132.08))
    (stroke (width 0) (type default))
    (uuid f7d66024-9156-4997-939e-d3d7b4e2f451)
  )
  (wire (pts (xy 80.01 83.82) (xy 82.55 83.82))
    (stroke (width 0) (type default))
    (uuid fb3c6c26-02b8-4fbd-b60e-82f65cc6eee8)
  )
  (wire (pts (xy 80.01 93.98) (xy 82.55 93.98))
    (stroke (width 0) (type default))
    (uuid fc499b7e-da3f-4429-90dd-fa3181a42c1a)
  )
  (wire (pts (xy 46.99 116.84) (xy 49.53 116.84))
    (stroke (width 0) (type default))
    (uuid ff7eecee-ba12-4a91-a73a-c89042539629)
  )

  (text "Touch Oroborus\n6 colums\n32 rows\n(48 touch pins)\n" (at 15.24 21.59 0)
    (effects (font (size 1.27 1.27)) (justify left bottom))
    (uuid 211c6a89-7bdc-4124-a358-64a0e08ad814)
  )

  (global_label "SDA" (shape input) (at 143.51 72.39 0) (fields_autoplaced)
    (effects (font (size 1.27 1.27)) (justify left))
    (uuid 023a35f1-1853-40b9-be5b-91c845113536)
    (property "Intersheetrefs" "${INTERSHEET_REFS}" (at 149.4912 72.3106 0)
      (effects (font (size 1.27 1.27)) (justify left) hide)
    )
  )
  (global_label "Y4" (shape input) (at 82.55 73.66 0) (fields_autoplaced)
    (effects (font (size 1.27 1.27)) (justify left))
    (uuid 0ae563c7-6a3c-404b-8cc3-160c88743674)
    (property "Intersheetrefs" "${INTERSHEET_REFS}" (at 87.2612 73.5806 0)
      (effects (font (size 1.27 1.27)) (justify left) hide)
    )
  )
  (global_label "X23" (shape input) (at 46.99 142.24 180) (fields_autoplaced)
    (effects (font (size 1.27 1.27)) (justify right))
    (uuid 0c070bb4-0780-4dd4-97a6-42c9e2246649)
    (property "Intersheetrefs" "${INTERSHEET_REFS}" (at 40.9483 142.3194 0)
      (effects (font (size 1.27 1.27)) (justify right) hide)
    )
  )
  (global_label "X21" (shape input) (at 46.99 137.16 180) (fields_autoplaced)
    (effects (font (size 1.27 1.27)) (justify right))
    (uuid 0ce82f5d-e1c6-4085-a0b6-ee39665453a9)
    (property "Intersheetrefs" "${INTERSHEET_REFS}" (at 40.9483 137.2394 0)
      (effects (font (size 1.27 1.27)) (justify right) hide)
    )
  )
  (global_label "X05" (shape input) (at 82.55 91.44 0) (fields_autoplaced)
    (effects (font (size 1.27 1.27)) (justify left))
    (uuid 181e2395-1066-4cb1-a3f3-cb9906969f1d)
    (property "Intersheetrefs" "${INTERSHEET_REFS}" (at 88.5917 91.3606 0)
      (effects (font (size 1.27 1.27)) (justify left) hide)
    )
  )
  (global_label "X01" (shape input) (at 82.55 81.28 0) (fields_autoplaced)
    (effects (font (size 1.27 1.27)) (justify left))
    (uuid 2148fb32-1d91-46e3-8ac4-d091a7f2e7db)
    (property "Intersheetrefs" "${INTERSHEET_REFS}" (at 88.5917 81.2006 0)
      (effects (font (size 1.27 1.27)) (justify left) hide)
    )
  )
  (global_label "X28" (shape input) (at 46.99 111.76 180) (fields_autoplaced)
    (effects (font (size 1.27 1.27)) (justify right))
    (uuid 2915a616-f5fa-4d9f-8584-67788b30ef90)
    (property "Intersheetrefs" "${INTERSHEET_REFS}" (at 40.9483 111.8394 0)
      (effects (font (size 1.27 1.27)) (justify right) hide)
    )
  )
  (global_label "X11" (shape input) (at 82.55 132.08 0) (fields_autoplaced)
    (effects (font (size 1.27 1.27)) (justify left))
    (uuid 40d236e5-9bcf-443e-907f-a08851b83ac0)
    (property "Intersheetrefs" "${INTERSHEET_REFS}" (at 88.5917 132.0006 0)
      (effects (font (size 1.27 1.27)) (justify left) hide)
    )
  )
  (global_label "X08" (shape input) (at 82.55 99.06 0) (fields_autoplaced)
    (effects (font (size 1.27 1.27)) (justify left))
    (uuid 4340f7a6-e669-44a0-b5c0-acd5df0a57ef)
    (property "Intersheetrefs" "${INTERSHEET_REFS}" (at 88.5917 98.9806 0)
      (effects (font (size 1.27 1.27)) (justify left) hide)
    )
  )
  (global_label "X15" (shape input) (at 82.55 142.24 0) (fields_autoplaced)
    (effects (font (size 1.27 1.27)) (justify left))
    (uuid 4820a2af-42e2-4422-bc5d-e6ae404dab96)
    (property "Intersheetrefs" "${INTERSHEET_REFS}" (at 88.5917 142.1606 0)
      (effects (font (size 1.27 1.27)) (justify left) hide)
    )
  )
  (global_label "X31" (shape input) (at 46.99 119.38 180) (fields_autoplaced)
    (effects (font (size 1.27 1.27)) (justify right))
    (uuid 4bee5892-6b3a-433a-b771-068c80bdc6e8)
    (property "Intersheetrefs" "${INTERSHEET_REFS}" (at 40.9483 119.4594 0)
      (effects (font (size 1.27 1.27)) (justify right) hide)
    )
  )
  (global_label "VDD" (shape input) (at 143.51 77.47 0) (fields_autoplaced)
    (effects (font (size 1.27 1.27)) (justify left))
    (uuid 4f2c770d-5b7b-433f-a7c8-42db6d6866e5)
    (property "Intersheetrefs" "${INTERSHEET_REFS}" (at 149.5517 77.5494 0)
      (effects (font (size 1.27 1.27)) (justify left) hide)
    )
  )
  (global_label "Y3" (shape input) (at 82.55 71.12 0) (fields_autoplaced)
    (effects (font (size 1.27 1.27)) (justify left))
    (uuid 4f5cb1eb-6d52-41d5-82f2-f09d039ef83f)
    (property "Intersheetrefs" "${INTERSHEET_REFS}" (at 87.2612 71.0406 0)
      (effects (font (size 1.27 1.27)) (justify left) hide)
    )
  )
  (global_label "SCL" (shape input) (at 83.82 111.76 0) (fields_autoplaced)
    (effects (font (size 1.27 1.27)) (justify left))
    (uuid 548b0d2a-d433-4bb5-a917-3ba7f60d6618)
    (property "Intersheetrefs" "${INTERSHEET_REFS}" (at 89.7407 111.6806 0)
      (effects (font (size 1.27 1.27)) (justify left) hide)
    )
  )
  (global_label "Y1" (shape input) (at 82.55 66.04 0) (fields_autoplaced)
    (effects (font (size 1.27 1.27)) (justify left))
    (uuid 55755971-79ce-425b-9d57-bda1c66e6328)
    (property "Intersheetrefs" "${INTERSHEET_REFS}" (at 87.2612 65.9606 0)
      (effects (font (size 1.27 1.27)) (justify left) hide)
    )
  )
  (global_label "X26" (shape input) (at 46.99 106.68 180) (fields_autoplaced)
    (effects (font (size 1.27 1.27)) (justify right))
    (uuid 57da5532-32aa-4848-8407-f5a1ebc725a1)
    (property "Intersheetrefs" "${INTERSHEET_REFS}" (at 40.9483 106.7594 0)
      (effects (font (size 1.27 1.27)) (justify right) hide)
    )
  )
  (global_label "X07" (shape input) (at 82.55 96.52 0) (fields_autoplaced)
    (effects (font (size 1.27 1.27)) (justify left))
    (uuid 60a9e62a-7164-40cf-b161-f64856cc7f46)
    (property "Intersheetrefs" "${INTERSHEET_REFS}" (at 88.5917 96.4406 0)
      (effects (font (size 1.27 1.27)) (justify left) hide)
    )
  )
  (global_label "X16" (shape input) (at 82.55 144.78 0) (fields_autoplaced)
    (effects (font (size 1.27 1.27)) (justify left))
    (uuid 63d457a7-7725-49a8-8927-9d6b0f4d0c39)
    (property "Intersheetrefs" "${INTERSHEET_REFS}" (at 88.5917 144.7006 0)
      (effects (font (size 1.27 1.27)) (justify left) hide)
    )
  )
  (global_label "X20" (shape input) (at 46.99 134.62 180) (fields_autoplaced)
    (effects (font (size 1.27 1.27)) (justify right))
    (uuid 65191900-e4c6-4f91-9f81-0cd570c0ac20)
    (property "Intersheetrefs" "${INTERSHEET_REFS}" (at 40.9483 134.6994 0)
      (effects (font (size 1.27 1.27)) (justify right) hide)
    )
  )
  (global_label "X25" (shape input) (at 46.99 104.14 180) (fields_autoplaced)
    (effects (font (size 1.27 1.27)) (justify right))
    (uuid 6714d9de-e41b-4660-99b7-65df329238ac)
    (property "Intersheetrefs" "${INTERSHEET_REFS}" (at 40.9483 104.2194 0)
      (effects (font (size 1.27 1.27)) (justify right) hide)
    )
  )
  (global_label "X06" (shape input) (at 82.55 93.98 0) (fields_autoplaced)
    (effects (font (size 1.27 1.27)) (justify left))
    (uuid 6b739559-7614-4068-8573-20f2944ff7f0)
    (property "Intersheetrefs" "${INTERSHEET_REFS}" (at 88.5917 93.9006 0)
      (effects (font (size 1.27 1.27)) (justify left) hide)
    )
  )
  (global_label "X18" (shape input) (at 46.99 129.54 180) (fields_autoplaced)
    (effects (font (size 1.27 1.27)) (justify right))
    (uuid 6be59686-327b-41d1-ba4e-c99190d3e82c)
    (property "Intersheetrefs" "${INTERSHEET_REFS}" (at 40.9483 129.6194 0)
      (effects (font (size 1.27 1.27)) (justify right) hide)
    )
  )
  (global_label "X03" (shape input) (at 82.55 86.36 0) (fields_autoplaced)
    (effects (font (size 1.27 1.27)) (justify left))
    (uuid 6e005a60-efab-443d-9a08-b512be1da9e3)
    (property "Intersheetrefs" "${INTERSHEET_REFS}" (at 88.5917 86.2806 0)
      (effects (font (size 1.27 1.27)) (justify left) hide)
    )
  )
  (global_label "TX" (shape input) (at 85.09 104.14 0) (fields_autoplaced)
    (effects (font (size 1.27 1.27)) (justify left))
    (uuid 6f0201a1-c7ac-4f5b-b0d8-7cc076eefd72)
    (property "Intersheetrefs" "${INTERSHEET_REFS}" (at 89.6802 104.0606 0)
      (effects (font (size 1.27 1.27)) (justify left) hide)
    )
  )
  (global_label "X10" (shape input) (at 82.55 129.54 0) (fields_autoplaced)
    (effects (font (size 1.27 1.27)) (justify left))
    (uuid 70650231-3657-458f-9f48-741b42421c7d)
    (property "Intersheetrefs" "${INTERSHEET_REFS}" (at 88.5917 129.4606 0)
      (effects (font (size 1.27 1.27)) (justify left) hide)
    )
  )
  (global_label "UDPI" (shape input) (at 121.92 67.31 180) (fields_autoplaced)
    (effects (font (size 1.27 1.27)) (justify right))
    (uuid 73109fbb-15f6-4d8c-a8e6-0b760c4e14c4)
    (property "Intersheetrefs" "${INTERSHEET_REFS}" (at 115.0317 67.2306 0)
      (effects (font (size 1.27 1.27)) (justify right) hide)
    )
  )
  (global_label "X09" (shape input) (at 82.55 127 0) (fields_autoplaced)
    (effects (font (size 1.27 1.27)) (justify left))
    (uuid 78f3d8ed-f942-4e99-a0f3-e26c1df3abb1)
    (property "Intersheetrefs" "${INTERSHEET_REFS}" (at 88.5917 126.9206 0)
      (effects (font (size 1.27 1.27)) (justify left) hide)
    )
  )
  (global_label "RX" (shape input) (at 143.51 69.85 0) (fields_autoplaced)
    (effects (font (size 1.27 1.27)) (justify left))
    (uuid 7cfee2bd-5892-4605-8550-ba336892343b)
    (property "Intersheetrefs" "${INTERSHEET_REFS}" (at 148.4026 69.7706 0)
      (effects (font (size 1.27 1.27)) (justify left) hide)
    )
  )
  (global_label "X17" (shape input) (at 46.99 127 180) (fields_autoplaced)
    (effects (font (size 1.27 1.27)) (justify right))
    (uuid 7d54bf8e-f133-4464-8266-880bafbe1196)
    (property "Intersheetrefs" "${INTERSHEET_REFS}" (at 40.9483 127.0794 0)
      (effects (font (size 1.27 1.27)) (justify right) hide)
    )
  )
  (global_label "X12" (shape input) (at 82.55 134.62 0) (fields_autoplaced)
    (effects (font (size 1.27 1.27)) (justify left))
    (uuid 7f4e060b-9e6c-44f5-9022-212391e75ec4)
    (property "Intersheetrefs" "${INTERSHEET_REFS}" (at 88.5917 134.5406 0)
      (effects (font (size 1.27 1.27)) (justify left) hide)
    )
  )
  (global_label "VDD" (shape input) (at 46.99 44.45 180) (fields_autoplaced)
    (effects (font (size 1.27 1.27)) (justify right))
    (uuid 8b41574e-83b0-4f77-a894-ce484be1f178)
    (property "Intersheetrefs" "${INTERSHEET_REFS}" (at 40.9483 44.3706 0)
      (effects (font (size 1.27 1.27)) (justify right) hide)
    )
  )
  (global_label "X13" (shape input) (at 82.55 137.16 0) (fields_autoplaced)
    (effects (font (size 1.27 1.27)) (justify left))
    (uuid 96dcf4d5-08cc-4b0f-b78b-b675ff8088a0)
    (property "Intersheetrefs" "${INTERSHEET_REFS}" (at 88.5917 137.0806 0)
      (effects (font (size 1.27 1.27)) (justify left) hide)
    )
  )
  (global_label "X27" (shape input) (at 46.99 109.22 180) (fields_autoplaced)
    (effects (font (size 1.27 1.27)) (justify right))
    (uuid 994a6741-c864-4479-bd03-fb815bcd65d4)
    (property "Intersheetrefs" "${INTERSHEET_REFS}" (at 40.9483 109.2994 0)
      (effects (font (size 1.27 1.27)) (justify right) hide)
    )
  )
  (global_label "UDPI" (shape input) (at 45.72 63.5 180) (fields_autoplaced)
    (effects (font (size 1.27 1.27)) (justify right))
    (uuid 9eece051-3be8-42aa-8d3a-31600cbf4f1d)
    (property "Intersheetrefs" "${INTERSHEET_REFS}" (at 38.8317 63.4206 0)
      (effects (font (size 1.27 1.27)) (justify right) hide)
    )
  )
  (global_label "X30" (shape input) (at 46.99 116.84 180) (fields_autoplaced)
    (effects (font (size 1.27 1.27)) (justify right))
    (uuid 9f09877f-26f1-43aa-b251-9cf9c39dfebe)
    (property "Intersheetrefs" "${INTERSHEET_REFS}" (at 40.9483 116.9194 0)
      (effects (font (size 1.27 1.27)) (justify right) hide)
    )
  )
  (global_label "X04" (shape input) (at 82.55 88.9 0) (fields_autoplaced)
    (effects (font (size 1.27 1.27)) (justify left))
    (uuid a4eb112a-bf71-4c46-bbf5-ebbf702ec58e)
    (property "Intersheetrefs" "${INTERSHEET_REFS}" (at 88.5917 88.8206 0)
      (effects (font (size 1.27 1.27)) (justify left) hide)
    )
  )
  (global_label "RX" (shape input) (at 85.09 106.68 0) (fields_autoplaced)
    (effects (font (size 1.27 1.27)) (justify left))
    (uuid ac22b1a1-6b74-41a8-acd8-1c20ff8bf89a)
    (property "Intersheetrefs" "${INTERSHEET_REFS}" (at 89.9826 106.6006 0)
      (effects (font (size 1.27 1.27)) (justify left) hide)
    )
  )
  (global_label "X14" (shape input) (at 82.55 139.7 0) (fields_autoplaced)
    (effects (font (size 1.27 1.27)) (justify left))
    (uuid afd3060b-0a35-46bf-b36c-abafefe21bbb)
    (property "Intersheetrefs" "${INTERSHEET_REFS}" (at 88.5917 139.6206 0)
      (effects (font (size 1.27 1.27)) (justify left) hide)
    )
  )
  (global_label "X19" (shape input) (at 46.99 132.08 180) (fields_autoplaced)
    (effects (font (size 1.27 1.27)) (justify right))
    (uuid b179feb9-2f49-4e0e-a200-fc5a38d984ae)
    (property "Intersheetrefs" "${INTERSHEET_REFS}" (at 40.9483 132.1594 0)
      (effects (font (size 1.27 1.27)) (justify right) hide)
    )
  )
  (global_label "GND" (shape input) (at 66.04 165.1 270) (fields_autoplaced)
    (effects (font (size 1.27 1.27)) (justify right))
    (uuid b3afe9df-dc38-4bd4-94bf-a16c5d088742)
    (property "Intersheetrefs" "${INTERSHEET_REFS}" (at 65.9606 171.3836 90)
      (effects (font (size 1.27 1.27)) (justify right) hide)
    )
  )
  (global_label "GND" (shape input) (at 120.65 74.93 180) (fields_autoplaced)
    (effects (font (size 1.27 1.27)) (justify right))
    (uuid bb6dcaa4-24b4-4aa3-9eb6-50c7d379f7e0)
    (property "Intersheetrefs" "${INTERSHEET_REFS}" (at 114.3664 74.8506 0)
      (effects (font (size 1.27 1.27)) (justify right) hide)
    )
  )
  (global_label "SDA" (shape input) (at 83.82 109.22 0) (fields_autoplaced)
    (effects (font (size 1.27 1.27)) (justify left))
    (uuid d60c43f6-a883-44eb-980c-bb7ad72b7ea4)
    (property "Intersheetrefs" "${INTERSHEET_REFS}" (at 89.8012 109.1406 0)
      (effects (font (size 1.27 1.27)) (justify left) hide)
    )
  )
  (global_label "Y2" (shape input) (at 82.55 68.58 0) (fields_autoplaced)
    (effects (font (size 1.27 1.27)) (justify left))
    (uuid e4241cc4-31fb-4270-84af-fe0b22a68459)
    (property "Intersheetrefs" "${INTERSHEET_REFS}" (at 87.2612 68.5006 0)
      (effects (font (size 1.27 1.27)) (justify left) hide)
    )
  )
  (global_label "X02" (shape input) (at 82.55 83.82 0) (fields_autoplaced)
    (effects (font (size 1.27 1.27)) (justify left))
    (uuid e6a96e12-b022-438a-a11c-a01f448bcef9)
    (property "Intersheetrefs" "${INTERSHEET_REFS}" (at 88.5917 83.7406 0)
      (effects (font (size 1.27 1.27)) (justify left) hide)
    )
  )
  (global_label "TX" (shape input) (at 143.51 67.31 0) (fields_autoplaced)
    (effects (font (size 1.27 1.27)) (justify left))
    (uuid e919b2d3-08de-4364-83b8-500f52e6b9c4)
    (property "Intersheetrefs" "${INTERSHEET_REFS}" (at 148.1002 67.2306 0)
      (effects (font (size 1.27 1.27)) (justify left) hide)
    )
  )
  (global_label "X24" (shape input) (at 46.99 144.78 180) (fields_autoplaced)
    (effects (font (size 1.27 1.27)) (justify right))
    (uuid ee07e9d8-2b4f-4cde-9a56-d418dab48591)
    (property "Intersheetrefs" "${INTERSHEET_REFS}" (at 40.9483 144.8594 0)
      (effects (font (size 1.27 1.27)) (justify right) hide)
    )
  )
  (global_label "X22" (shape input) (at 46.99 139.7 180) (fields_autoplaced)
    (effects (font (size 1.27 1.27)) (justify right))
    (uuid ee8605ae-c86f-4fd2-8f92-be795efedab0)
    (property "Intersheetrefs" "${INTERSHEET_REFS}" (at 40.9483 139.7794 0)
      (effects (font (size 1.27 1.27)) (justify right) hide)
    )
  )
  (global_label "X29" (shape input) (at 46.99 114.3 180) (fields_autoplaced)
    (effects (font (size 1.27 1.27)) (justify right))
    (uuid f37be2d4-8b03-4f11-95ab-bebb08988bdc)
    (property "Intersheetrefs" "${INTERSHEET_REFS}" (at 40.9483 114.3794 0)
      (effects (font (size 1.27 1.27)) (justify right) hide)
    )
  )
  (global_label "Y5" (shape input) (at 82.55 76.2 0) (fields_autoplaced)
    (effects (font (size 1.27 1.27)) (justify left))
    (uuid fd42df91-1752-49e0-8a1f-ea2668084342)
    (property "Intersheetrefs" "${INTERSHEET_REFS}" (at 87.2612 76.1206 0)
      (effects (font (size 1.27 1.27)) (justify left) hide)
    )
  )
  (global_label "SCL" (shape input) (at 143.51 74.93 0) (fields_autoplaced)
    (effects (font (size 1.27 1.27)) (justify left))
    (uuid fe7c6036-58eb-472a-bcf5-4eff9467521c)
    (property "Intersheetrefs" "${INTERSHEET_REFS}" (at 149.4307 74.8506 0)
      (effects (font (size 1.27 1.27)) (justify left) hide)
    )
  )

  (symbol (lib_id "Mechanical:MountingHole") (at 158.75 24.13 0) (unit 1)
    (in_bom yes) (on_board yes) (dnp no) (fields_autoplaced)
    (uuid 0570787e-1121-4a9a-8547-f68706a7ba87)
    (property "Reference" "H1" (at 161.29 23.2215 0)
      (effects (font (size 1.27 1.27)) (justify left))
    )
    (property "Value" "NPTH" (at 161.29 25.9966 0)
      (effects (font (size 1.27 1.27)) (justify left))
    )
    (property "Footprint" "MountingHole:MountingHole_2.2mm_M2" (at 158.75 24.13 0)
      (effects (font (size 1.27 1.27)) hide)
    )
    (property "Datasheet" "~" (at 158.75 24.13 0)
      (effects (font (size 1.27 1.27)) hide)
    )
    (instances
      (project "Adoraborus-TOP"
        (path "/e63e39d7-6ac0-4ffd-8aa3-1841a4541b55"
          (reference "H1") (unit 1)
        )
      )
    )
  )

  (symbol (lib_id "Mechanical:MountingHole") (at 158.75 34.29 0) (unit 1)
    (in_bom yes) (on_board yes) (dnp no) (fields_autoplaced)
    (uuid 18e8a896-4c97-4db8-bc14-70a7b75eb76d)
    (property "Reference" "H3" (at 161.29 33.3815 0)
      (effects (font (size 1.27 1.27)) (justify left))
    )
    (property "Value" "NPTH" (at 161.29 36.1566 0)
      (effects (font (size 1.27 1.27)) (justify left))
    )
    (property "Footprint" "MountingHole:MountingHole_2.2mm_M2" (at 158.75 34.29 0)
      (effects (font (size 1.27 1.27)) hide)
    )
    (property "Datasheet" "~" (at 158.75 34.29 0)
      (effects (font (size 1.27 1.27)) hide)
    )
    (instances
      (project "Adoraborus-TOP"
        (path "/e63e39d7-6ac0-4ffd-8aa3-1841a4541b55"
          (reference "H3") (unit 1)
        )
      )
    )
  )

  (symbol (lib_id "MK_THIRD_PARTY:Graphic_Placeholder") (at 135.89 26.67 0) (unit 1)
    (in_bom yes) (on_board yes) (dnp no) (fields_autoplaced)
    (uuid 2e90e294-82e1-45da-9bf1-b91dfe0dc8f6)
    (property "Reference" "G1" (at 137.16 20.2905 0)
      (effects (font (size 1.27 1.27)))
    )
    (property "Value" "Graphic_F.Mask" (at 137.16 23.0656 0)
      (effects (font (size 1.27 1.27)))
    )
    (property "Footprint" "Sigil_Circuitry:adoraborus_MASK" (at 135.89 26.67 0)
      (effects (font (size 1.27 1.27)) hide)
    )
    (property "Datasheet" "" (at 135.89 26.67 0)
      (effects (font (size 1.27 1.27)) hide)
    )
    (instances
      (project "Adoraborus-TOP"
        (path "/e63e39d7-6ac0-4ffd-8aa3-1841a4541b55"
          (reference "G1") (unit 1)
        )
      )
    )
  )

  (symbol (lib_id "Mechanical:MountingHole") (at 158.75 39.37 0) (unit 1)
    (in_bom yes) (on_board yes) (dnp no) (fields_autoplaced)
    (uuid 32df1c97-7ad7-45fb-8f5e-a3220e8c904d)
    (property "Reference" "H4" (at 161.29 38.4615 0)
      (effects (font (size 1.27 1.27)) (justify left))
    )
    (property "Value" "NPTH" (at 161.29 41.2366 0)
      (effects (font (size 1.27 1.27)) (justify left))
    )
    (property "Footprint" "MountingHole:MountingHole_2.2mm_M2" (at 158.75 39.37 0)
      (effects (font (size 1.27 1.27)) hide)
    )
    (property "Datasheet" "~" (at 158.75 39.37 0)
      (effects (font (size 1.27 1.27)) hide)
    )
    (instances
      (project "Adoraborus-TOP"
        (path "/e63e39d7-6ac0-4ffd-8aa3-1841a4541b55"
          (reference "H4") (unit 1)
        )
      )
    )
  )

  (symbol (lib_id "MK_THIRD_PARTY:Graphic_Placeholder") (at 135.89 50.8 0) (unit 1)
    (in_bom yes) (on_board yes) (dnp no) (fields_autoplaced)
    (uuid 462d4fb5-03fa-46f1-b87b-b79ef19fc5a1)
    (property "Reference" "G3" (at 137.16 44.4205 0)
      (effects (font (size 1.27 1.27)))
    )
    (property "Value" "Graphic_B.Mask" (at 137.16 47.1956 0)
      (effects (font (size 1.27 1.27)))
    )
    (property "Footprint" "Sigil_Circuitry:adoraborus_BACKMASK" (at 135.89 50.8 0)
      (effects (font (size 1.27 1.27)) hide)
    )
    (property "Datasheet" "" (at 135.89 50.8 0)
      (effects (font (size 1.27 1.27)) hide)
    )
    (instances
      (project "Adoraborus-TOP"
        (path "/e63e39d7-6ac0-4ffd-8aa3-1841a4541b55"
          (reference "G3") (unit 1)
        )
      )
    )
  )

  (symbol (lib_id "MK_THIRD_PARTY:Graphic_Placeholder") (at 135.89 38.1 0) (unit 1)
    (in_bom yes) (on_board yes) (dnp no) (fields_autoplaced)
    (uuid 77c3608e-7555-4ea2-9cf6-8b737d2fa1ab)
    (property "Reference" "G2" (at 137.16 31.7205 0)
      (effects (font (size 1.27 1.27)))
    )
    (property "Value" "Graphic_Copper" (at 137.16 34.4956 0)
      (effects (font (size 1.27 1.27)))
    )
    (property "Footprint" "Sigil_Circuitry:adoraborus_CU" (at 135.89 38.1 0)
      (effects (font (size 1.27 1.27)) hide)
    )
    (property "Datasheet" "" (at 135.89 38.1 0)
      (effects (font (size 1.27 1.27)) hide)
    )
    (instances
      (project "Adoraborus-TOP"
        (path "/e63e39d7-6ac0-4ffd-8aa3-1841a4541b55"
          (reference "G2") (unit 1)
        )
      )
    )
  )

  (symbol (lib_id "Connector_Generic:Conn_02x05_Odd_Even") (at 130.81 72.39 0) (unit 1)
    (in_bom yes) (on_board yes) (dnp no) (fields_autoplaced)
    (uuid 7df9ce6f-7f38-4582-a049-7f92faf1abc9)
    (property "Reference" "J1" (at 132.08 62.0735 0)
      (effects (font (size 1.27 1.27)))
    )
    (property "Value" "Conn_02x05_Odd_Even" (at 132.08 64.8486 0)
      (effects (font (size 1.27 1.27)))
    )
    (property "Footprint" "mk_third_party:SAMTEC_FTS-105-03-L-DV" (at 130.81 72.39 0)
      (effects (font (size 1.27 1.27)) hide)
    )
    (property "Datasheet" "~" (at 130.81 72.39 0)
      (effects (font (size 1.27 1.27)) hide)
    )
    (pin "1" (uuid 2ad4b4ba-3abd-4313-bed9-1edce936a95e))
    (pin "10" (uuid cd2580a0-9e4c-4895-a13c-3b2ee33bafc4))
    (pin "2" (uuid d337c492-7429-4618-b378-df29f72737e3))
    (pin "3" (uuid bc01f3e7-a131-4f66-8abc-cc13e855d5e5))
    (pin "4" (uuid fd34aa56-ded2-4e97-965a-a39457716f0c))
    (pin "5" (uuid e002a979-85bc-451a-a77b-29ce2a8f19f9))
    (pin "6" (uuid 8313e187-c805-4927-8002-313a51839243))
    (pin "7" (uuid b5cea0b5-192f-476b-a3c8-0c26e2231699))
    (pin "8" (uuid 524d7aa8-362f-459a-b2ae-4ca2a0b1612b))
    (pin "9" (uuid 8fd0b33a-45bf-4216-9d7e-a62e1c071730))
    (instances
      (project "Adoraborus-TOP"
        (path "/e63e39d7-6ac0-4ffd-8aa3-1841a4541b55"
          (reference "J1") (unit 1)
        )
      )
    )
  )

  (symbol (lib_id "Chippydootles_Symbols:AVR128DA64") (at 64.77 101.6 0) (unit 1)
    (in_bom yes) (on_board yes) (dnp no)
    (uuid e40eff05-1192-431f-9fe7-c855ef15c3c9)
    (property "Reference" "U1" (at 53.34 152.4 0)
      (effects (font (size 1.27 1.27)))
    )
    (property "Value" "AVR128DA64" (at 74.93 151.13 0)
      (effects (font (size 1.27 1.27)))
    )
    (property "Footprint" "Package_DFN_QFN:QFN-64-1EP_9x9mm_P0.5mm_EP7.15x7.15mm" (at 64.77 101.6 0)
      (effects (font (size 1.27 1.27) italic) hide)
    )
    (property "Datasheet" "https://ww1.microchip.com/downloads/aemdocument/MCU08/ProductDocuments/DataSheets/AVR128DA28-32-48-64-Data-Sheet-40002183C.pdf" (at 64.77 101.6 0)
      (effects (font (size 1.27 1.27)) hide)
    )
    (pin "1" (uuid 980956cf-f678-4a74-ab98-7c5a56c500fa))
    (pin "10" (uuid 17f7cfb6-801f-4916-9f2c-fa07aead9863))
    (pin "11" (uuid 1fded2fe-6872-4dba-8416-d252e1603c75))
    (pin "12" (uuid 1307d97c-905e-44dc-8541-b20d92a8b5fd))
    (pin "13" (uuid d0da4fdb-5b55-4591-95a0-8410a7eecfab))
    (pin "14" (uuid 7b1d4607-0617-4f1d-998a-c4557ded98c7))
    (pin "15" (uuid fa7d4f10-56fb-4e14-b499-a41ca38e4267))
    (pin "16" (uuid ac77f4c2-9504-4cf2-ae14-8298ebc8f6f8))
    (pin "17" (uuid bebdcbda-18e4-4aa8-bbca-cc6ff784aa77))
    (pin "18" (uuid 2c3386f6-4b52-4274-8edf-57eae9a928e8))
    (pin "19" (uuid 019a94be-2c2f-4308-bb3b-582e5a9893a0))
    (pin "2" (uuid ba654983-0860-4acc-9db2-0dd0b4c6dbb2))
    (pin "20" (uuid 86e6b9ba-bac3-4bcd-9288-8deb2f8379fa))
    (pin "21" (uuid 83e2e0dd-cfce-4b09-9d99-dd3efc55b7b0))
    (pin "22" (uuid 806fef2c-7076-46fa-8734-6fcd1b468ee9))
    (pin "23" (uuid e25f6e84-38b7-4f7f-a427-a979ac4b58d6))
    (pin "24" (uuid 48352372-8c7e-4e65-bdbb-d2037c86cca8))
    (pin "25" (uuid 72888051-a82b-468f-afdc-405da8f6b8ac))
    (pin "26" (uuid d99b69d7-2022-45a9-9ce8-750c63117ccd))
    (pin "27" (uuid f49bbe22-90e9-49d4-834a-9903d50cdcbf))
    (pin "28" (uuid cc0b794d-6df1-4af8-8258-29842974811e))
    (pin "29" (uuid 464b3787-62c5-4708-a74d-c4f8c4d4d14c))
    (pin "3" (uuid f21ee73e-c4f1-4a38-af14-1f9404a23e49))
    (pin "30" (uuid 237180d0-c27b-404b-8bc1-116b8c52b48a))
    (pin "31" (uuid bce176e1-0143-4849-adcd-06d410c63ae4))
    (pin "32" (uuid 51994ec5-5705-4e91-8de0-1afb616bcbaa))
    (pin "33" (uuid 3c412ae8-805d-4363-a487-7b5ae38f6abe))
    (pin "34" (uuid dd9e79ef-4899-43cd-89dc-48572c7ff05c))
    (pin "35" (uuid 73c1dd33-e87b-4841-b67c-37cb5d1342d7))
    (pin "36" (uuid 40f8d957-35be-4ba6-8c84-dbeeb14edb6e))
    (pin "37" (uuid eee87c54-b85e-4cbf-901d-cb6f03c5827b))
    (pin "38" (uuid 4d434848-1112-459e-90d4-cf0dd81d9c90))
    (pin "39" (uuid 6697f772-007e-4735-9fc7-f5b0d43a1ceb))
    (pin "4" (uuid 9485d777-8c14-4aab-9cf1-ad07a58b17a5))
    (pin "40" (uuid addce2f5-273a-472c-a80c-fe44bcdbd367))
    (pin "41" (uuid 21b2e6cf-be4b-4682-9cef-a6ebee990023))
    (pin "42" (uuid 8a7afd0f-eeeb-44e5-8ca9-3cdd903a1ec2))
    (pin "43" (uuid 0935f06a-3ca0-47d8-85b3-d5ced1bbd9db))
    (pin "44" (uuid 166160b5-b41e-4c78-97fc-65f247e393f9))
    (pin "45" (uuid 06e11b97-946f-4ecb-a849-e05354893540))
    (pin "46" (uuid 8fcbaf5d-fc96-4df8-bc70-de138fd94f0a))
    (pin "47" (uuid 5905cb1d-02cf-4df3-8cfc-eb8102c0c4bd))
    (pin "48" (uuid da944e69-a313-47a8-9799-42df4a709cb4))
    (pin "49" (uuid 423f8352-5bed-4890-ad2e-eb87396322aa))
    (pin "5" (uuid c0672a99-636b-4497-ab8d-8f914763df99))
    (pin "50" (uuid 0259dbcb-95f6-498b-87b6-8787d6e3de87))
    (pin "51" (uuid 933afc40-e2d7-4624-886f-11c94d6aa592))
    (pin "51" (uuid 933afc40-e2d7-4624-886f-11c94d6aa593))
    (pin "52" (uuid 2f3c1d69-5fbb-4b02-a0b7-83e5e634e8c8))
    (pin "54" (uuid aec84ae7-a2ef-4f55-a7a3-53710d713a8b))
    (pin "55" (uuid 7fd4f107-c917-4b2c-800a-517e5c051b20))
    (pin "56" (uuid fef51ddb-95e2-4690-8753-247197c1e28f))
    (pin "57" (uuid bd63cd39-8e88-4368-9763-5538c07e30e8))
    (pin "58" (uuid 23242365-50ae-48d5-a9aa-0a0daf0a0c7b))
    (pin "59" (uuid b8bb2fe8-7745-4307-ae49-ec9c9742adcf))
    (pin "6" (uuid e601f9e7-1d02-4352-9882-6f077a275cd1))
    (pin "60" (uuid 2cd9a157-46c5-4fe7-a8cb-99366fb56f88))
    (pin "61" (uuid bd43ae5c-e7d5-448d-8b65-89afe5436a6f))
    (pin "62" (uuid 50706027-e629-4655-8c4a-9b84a3ac6433))
    (pin "63" (uuid 93be5301-b867-47e7-ae7c-7dd77ecbcf91))
    (pin "64" (uuid bf209f3e-ad0b-4b3d-b92d-ed3a3665489d))
    (pin "65" (uuid c220a5b1-0bc2-476c-997f-0db0e05f01a5))
    (pin "7" (uuid f9fe3880-2f41-4f33-a5f5-1fac73493ad6))
    (pin "8" (uuid b3311196-aba8-418f-ab9b-240f7e370129))
    (pin "9" (uuid f01494c7-794d-4717-9a10-9f4824be88ce))
    (instances
      (project "Adoraborus-TOP"
        (path "/e63e39d7-6ac0-4ffd-8aa3-1841a4541b55"
          (reference "U1") (unit 1)
        )
      )
    )
  )

  (symbol (lib_id "Mechanical:MountingHole") (at 158.75 29.21 0) (unit 1)
    (in_bom yes) (on_board yes) (dnp no) (fields_autoplaced)
    (uuid f2d084d5-3227-4cf1-b8a1-119fd8bd10e9)
    (property "Reference" "H2" (at 161.29 28.3015 0)
      (effects (font (size 1.27 1.27)) (justify left))
    )
    (property "Value" "NPTH" (at 161.29 31.0766 0)
      (effects (font (size 1.27 1.27)) (justify left))
    )
    (property "Footprint" "MountingHole:MountingHole_2.2mm_M2" (at 158.75 29.21 0)
      (effects (font (size 1.27 1.27)) hide)
    )
    (property "Datasheet" "~" (at 158.75 29.21 0)
      (effects (font (size 1.27 1.27)) hide)
    )
    (instances
      (project "Adoraborus-TOP"
        (path "/e63e39d7-6ac0-4ffd-8aa3-1841a4541b55"
          (reference "H2") (unit 1)
        )
      )
    )
  )

  (sheet_instances
    (path "/" (page "1"))
  )
)
